…
Creiamo un Dataframe in formato tidy (cioè, tale per cui le osservazioni stanno sulle righe e le variabili stanno sulle colonne) che contiene le stime a posteriori di $\alpha$ e $\beta$:


```r
draws <- stanfit %>%
  spread_draws(beta, alpha)
```


```r
draws %>%
  head(10)
#> # A tibble: 10 × 5
#>   .chain .iteration .draw  beta alpha
#>    <int>      <int> <int> <dbl> <dbl>
#> 1      1          1     1 0.632  88.4
#> 2      1          2     2 0.491  87.5
#> 3      1          3     3 0.717  85.9
#> 4      1          4     4 0.478  87.5
#> 5      1          5     5 0.610  86.4
#> 6      1          6     6 0.570  86.7
#> 7      1          7     7 0.623  87.0
#> 8      1          8     8 0.616  87.2
#> # … with 2 more rows
```
…
