Capitolo 31 Modello gerarchico | Data Science per psicologi
…
I risultati sono i seguenti.

fit1$summary()
#> # A tibble: 9 × 10
#>   variable   mean median    sd   mad      q5   q95  rhat ess_bulk ess_tail
#>   <chr>     <dbl>  <dbl> <dbl> <dbl>   <dbl> <dbl> <dbl>    <dbl>    <dbl>
#> 1 lp__     -3.99  -3.66   2.00  1.85  -7.78  -1.36  1.00   39035.   56040.
#> 2 theta[1] 28.3   28.3   14.8  14.8    4.04  52.8   1.00  117783.   64274.
#> 3 theta[2]  7.92   7.91  10.2  10.2   -8.84  24.7   1.00  116382.   62867.
#> 4 theta[3] -2.80  -2.79  16.3  16.3  -29.6   23.9   1.00  120074.   61773.
#> 5 theta[4]  6.83   6.85  11.0  11.0  -11.2   24.8   1.00  114806.   63734.
#> 6 theta[5] -0.686 -0.685  9.36  9.37 -16.0   14.7   1.00  116956.   63114.
#> 7 theta[6]  0.642  0.618 11.3  11.4  -18.0   19.3   1.00  113520.   62691.
#> 8 theta[7] 18.0   18.0   10.5  10.5    0.656 35.2   1.00  114082.   61308.
#> # … with 1 more row
…
